AD,24,AD\d{10}[A-Z0-9]{12},Andorra
AE,23,AE\d{21},United Arab Emirates
AL,28,AL\d{10}[A-Z0-9]{16},Albania
AT,20,AT\d{18},Austria
AZ,28,AZ\d{2}[A-Z]{4}[A-Z0-9]{20},Republic of Azerbaijan
BA,20,BA\d{18},Bosnia and Herzegovina
BE,16,BE\d{14},Belgium
BG,22,BG\d{2}[A-Z]{4}\d{6}[A-Z0-9]{8},Bulgaria
BH,22,BH\d{2}[A-Z]{4}[A-Z0-9]{14},Bahrain (Kingdom of)
BR,29,BR\d{25}[A-Z]{1}[A-Z0-9]{1},Brazil
BY,28,BY\d{2}[A-Z0-9]{4}\d{4}[A-Z0-9]{16},Republic of Belarus
CH,21,CH\d{7}[A-Z0-9]{12},Switzerland
CR,22,CR\d{20},Costa Rica
CY,28,CY\d{10}[A-Z0-9]{16},Cyprus
CZ,24,CZ\d{22},Czech Republic
DE,22,DE\d{20},Germany
DK,18,DK\d{16},Denmark
DO,28,DO\d{2}[A-Z0-9]{4}\d{20},Dominican Republic
EE,20,EE\d{18},Estonia
ES,24,ES\d{22},Spain
FI,18,FI\d{16},Finland
FO,18,FO\d{16},Denmark (Faroes)
FR,27,FR\d{12}[A-Z0-9]{11}\d{2},France
GB,22,GB\d{2}[A-Z]{4}\d{14},United Kingdom
GE,22,GE\d{2}[A-Z]{2}\d{16},Georgia
GI,23,GI\d{2}[A-Z]{4}[A-Z0-9]{15},Gibraltar
GL,18,GL\d{16},Denmark (Greenland)
GR,27,GR\d{9}[A-Z0-9]{16},Greece
GT,28,GT\d{2}[A-Z0-9]{24},Guatemala
HR,21,HR\d{19},Croatia
HU,28,HU\d{26},Hungary
IE,22,IE\d{2}[A-Z]{4}\d{14},Ireland
IL,23,IL\d{21},Israel
IS,26,IS\d{24},Iceland
IT,27,IT\d{2}[A-Z]{1}\d{10}[A-Z0-9]{12},Italy
IQ,23,IQ\d{2}[A-Z]{4}\d{15},Iraq
JO,30,JO\d{2}[A-Z]{4}\d{4}[A-Z0-9]{18},Jordan
KW,30,KW\d{2}[A-Z]{4}[A-Z0-9]{22},Kuwait
KZ,20,KZ\d{5}[A-Z0-9]{13},Kazakhstan
LB,28,LB\d{6}[A-Z0-9]{20},Lebanon
LC,32,LC\d{2}[A-Z]{4}[A-Z0-9]{24},Saint Lucia
LI,21,LI\d{7}[A-Z0-9]{12},Liechtenstein (Principality of)
LT,20,LT\d{18},Lithuania
LU,20,LU\d{5}[A-Z0-9]{13},Luxembourg
LV,21,LV\d{2}[A-Z]{4}[A-Z0-9]{13},Latvia
MC,27,MC\d{12}[A-Z0-9]{11}\d{2},Monaco
MD,24,MD\d{2}[A-Z0-9]{20},Moldova
ME,22,ME\d{20},Montenegro
MK,19,MK\d{5}[A-Z0-9]{10}\d{2},Macedonia, Former Yugoslav Republic of
MR,27,MR\d{25},Mauritania
MT,31,MT\d{2}[A-Z]{4}\d{5}[A-Z0-9]{18},Malta
MU,30,MU\d{2}[A-Z]{4}\d{19}[A-Z]{3},Mauritius
NL,18,NL\d{2}[A-Z]{4}\d{10},The Netherlands
NO,15,NO\d{13},Norway
PK,24,PK\d{2}[A-Z]{4}[A-Z0-9]{16},Pakistan
PL,28,PL\d{26},Poland
PS,29,PS\d{2}[A-Z]{4}[A-Z0-9]{21},Palestine, State of
PT,25,PT\d{23},Portugal
QA,29,QA\d{2}[A-Z]{4}[A-Z0-9]{21},Qatar
RO,24,RO\d{2}[A-Z]{4}[A-Z0-9]{16},Romania
RS,22,RS\d{20},Serbia
SA,24,SA\d{4}[A-Z0-9]{18},Saudi Arabia
SC,31,SC\d{2}[A-Z]{4}\d{20}[A-Z]{3},Seychelles
SE,24,SE\d{22},Sweden
SI,19,SI\d{17},Slovenia
SK,24,SK\d{22},Slovak Republic
SM,27,SM\d{2}[A-Z]{1}\d{10}[A-Z0-9]{12},San Marino
ST,25,ST\d{23},Sao Tome and Principe
TL,23,TL\d{21},Timor-Leste
TN,24,TN\d{22},Tunisia
TR,26,TR\d{8}[A-Z0-9]{16},Turkey
UA,29,UA\d{8}[A-Z0-9]{19},Ukraine
VG,24,VG\d{2}[A-Z]{4}\d{16},Virgin Islands, British
XK,20,XK\d{18},Republic of Kosovo